year,week,yearweek,date,doy,flags,deaths
2000,01,2000 W01,2000-01-03,3,final,1069
2000,02,2000 W02,2000-01-10,10,final,1160
2000,03,2000 W03,2000-01-17,17,final,1164
2000,04,2000 W04,2000-01-24,24,final,1270
2000,05,2000 W05,2000-01-31,31,final,1328
2000,06,2000 W06,2000-02-07,38,final,1240
2000,07,2000 W07,2000-02-14,45,final,1084
2000,08,2000 W08,2000-02-21,52,final,1156
2000,09,2000 W09,2000-02-28,59,final,1074
2000,10,2000 W10,2000-03-06,66,final,1063
2000,11,2000 W11,2000-03-13,73,final,954
2000,12,2000 W12,2000-03-20,80,final,1004
2000,13,2000 W13,2000-03-27,87,final,997
2000,14,2000 W14,2000-04-03,94,final,910
2000,15,2000 W15,2000-04-10,101,final,1013
2000,16,2000 W16,2000-04-17,108,final,964
2000,17,2000 W17,2000-04-24,115,final,876
2000,18,2000 W18,2000-05-01,122,final,862
2000,19,2000 W19,2000-05-08,129,final,889
2000,20,2000 W20,2000-05-15,136,final,853
2000,21,2000 W21,2000-05-22,143,final,973
2000,22,2000 W22,2000-05-29,150,final,835
2000,23,2000 W23,2000-06-05,157,final,972
2000,24,2000 W24,2000-06-12,164,final,976
2000,25,2000 W25,2000-06-19,171,final,983
2000,26,2000 W26,2000-06-26,178,final,793
2000,27,2000 W27,2000-07-03,185,final,979
2000,28,2000 W28,2000-07-10,192,final,816
2000,29,2000 W29,2000-07-17,199,final,822
2000,30,2000 W30,2000-07-24,206,final,894
2000,31,2000 W31,2000-07-31,213,final,889
2000,32,2000 W32,2000-08-07,220,final,835
2000,33,2000 W33,2000-08-14,227,final,980
2000,34,2000 W34,2000-08-21,234,final,934
2000,35,2000 W35,2000-08-28,241,final,808
2000,36,2000 W36,2000-09-04,248,final,783
2000,37,2000 W37,2000-09-11,255,final,904
2000,38,2000 W38,2000-09-18,262,final,859
2000,39,2000 W39,2000-09-25,269,final,874
2000,40,2000 W40,2000-10-02,276,final,876
2000,41,2000 W41,2000-10-09,283,final,900
2000,42,2000 W42,2000-10-16,290,final,885
2000,43,2000 W43,2000-10-23,297,final,933
2000,44,2000 W44,2000-10-30,304,final,958
2000,45,2000 W45,2000-11-06,311,final,902
2000,46,2000 W46,2000-11-13,318,final,916
2000,47,2000 W47,2000-11-20,325,final,894
2000,48,2000 W48,2000-11-27,332,final,900
2000,49,2000 W49,2000-12-04,339,final,934
2000,50,2000 W50,2000-12-11,346,final,946
2000,51,2000 W51,2000-12-18,353,final,954
2000,52,2000 W52,2000-12-25,360,final,1086
2001,01,2001 W01,2001-01-01,1,final,1071
2001,02,2001 W02,2001-01-08,8,final,934
2001,03,2001 W03,2001-01-15,15,final,993
2001,04,2001 W04,2001-01-22,22,final,1036
2001,05,2001 W05,2001-01-29,29,final,928
2001,06,2001 W06,2001-02-05,36,final,978
2001,07,2001 W07,2001-02-12,43,final,1010
2001,08,2001 W08,2001-02-19,50,final,937
2001,09,2001 W09,2001-02-26,57,final,1048
2001,10,2001 W10,2001-03-05,64,final,999
2001,11,2001 W11,2001-03-12,71,final,969
2001,12,2001 W12,2001-03-19,78,final,906
2001,13,2001 W13,2001-03-26,85,final,907
2001,14,2001 W14,2001-04-02,92,final,880
2001,15,2001 W15,2001-04-09,99,final,920
2001,16,2001 W16,2001-04-16,106,final,962
2001,17,2001 W17,2001-04-23,113,final,967
2001,18,2001 W18,2001-04-30,120,final,1002
2001,19,2001 W19,2001-05-07,127,final,878
2001,20,2001 W20,2001-05-14,134,final,908
2001,21,2001 W21,2001-05-21,141,final,879
2001,22,2001 W22,2001-05-28,148,final,923
2001,23,2001 W23,2001-06-04,155,final,970
2001,24,2001 W24,2001-06-11,162,final,931
2001,25,2001 W25,2001-06-18,169,final,912
2001,26,2001 W26,2001-06-25,176,final,971
2001,27,2001 W27,2001-07-02,183,final,864
2001,28,2001 W28,2001-07-09,190,final,939
2001,29,2001 W29,2001-07-16,197,final,935
2001,30,2001 W30,2001-07-23,204,final,935
2001,31,2001 W31,2001-07-30,211,final,992
2001,32,2001 W32,2001-08-06,218,final,937
2001,33,2001 W33,2001-08-13,225,final,897
2001,34,2001 W34,2001-08-20,232,final,824
2001,35,2001 W35,2001-08-27,239,final,847
2001,36,2001 W36,2001-09-03,246,final,804
2001,37,2001 W37,2001-09-10,253,final,879
2001,38,2001 W38,2001-09-17,260,final,952
2001,39,2001 W39,2001-09-24,267,final,924
2001,40,2001 W40,2001-10-01,274,final,929
2001,41,2001 W41,2001-10-08,281,final,932
2001,42,2001 W42,2001-10-15,288,final,891
2001,43,2001 W43,2001-10-22,295,final,818
2001,44,2001 W44,2001-10-29,302,final,907
2001,45,2001 W45,2001-11-05,309,final,998
2001,46,2001 W46,2001-11-12,316,final,986
2001,47,2001 W47,2001-11-19,323,final,989
2001,48,2001 W48,2001-11-26,330,final,1030
2001,49,2001 W49,2001-12-03,337,final,989
2001,50,2001 W50,2001-12-10,344,final,1027
2001,51,2001 W51,2001-12-17,351,final,1197
2001,52,2001 W52,2001-12-24,358,final,1149
2002,01,2002 W01,2001-12-31,365,final,1149
2002,02,2002 W02,2002-01-07,7,final,1092
2002,03,2002 W03,2002-01-14,14,final,1093
2002,04,2002 W04,2002-01-21,21,final,1122
2002,05,2002 W05,2002-01-28,28,final,976
2002,06,2002 W06,2002-02-04,35,final,1026
2002,07,2002 W07,2002-02-11,42,final,936
2002,08,2002 W08,2002-02-18,49,final,1031
2002,09,2002 W09,2002-02-25,56,final,1076
2002,10,2002 W10,2002-03-04,63,final,1099
2002,11,2002 W11,2002-03-11,70,final,1026
2002,12,2002 W12,2002-03-18,77,final,1025
2002,13,2002 W13,2002-03-25,84,final,1020
2002,14,2002 W14,2002-04-01,91,final,1003
2002,15,2002 W15,2002-04-08,98,final,1006
2002,16,2002 W16,2002-04-15,105,final,1014
2002,17,2002 W17,2002-04-22,112,final,907
2002,18,2002 W18,2002-04-29,119,final,996
2002,19,2002 W19,2002-05-06,126,final,915
2002,20,2002 W20,2002-05-13,133,final,883
2002,21,2002 W21,2002-05-20,140,final,927
2002,22,2002 W22,2002-05-27,147,final,904
2002,23,2002 W23,2002-06-03,154,final,911
2002,24,2002 W24,2002-06-10,161,final,911
2002,25,2002 W25,2002-06-17,168,final,1099
2002,26,2002 W26,2002-06-24,175,final,949
2002,27,2002 W27,2002-07-01,182,final,853
2002,28,2002 W28,2002-07-08,189,final,936
2002,29,2002 W29,2002-07-15,196,final,842
2002,30,2002 W30,2002-07-22,203,final,825
2002,31,2002 W31,2002-07-29,210,final,900
2002,32,2002 W32,2002-08-05,217,final,847
2002,33,2002 W33,2002-08-12,224,final,893
2002,34,2002 W34,2002-08-19,231,final,853
2002,35,2002 W35,2002-08-26,238,final,888
2002,36,2002 W36,2002-09-02,245,final,828
2002,37,2002 W37,2002-09-09,252,final,820
2002,38,2002 W38,2002-09-16,259,final,931
2002,39,2002 W39,2002-09-23,266,final,921
2002,40,2002 W40,2002-09-30,273,final,1011
2002,41,2002 W41,2002-10-07,280,final,959
2002,42,2002 W42,2002-10-14,287,final,1006
2002,43,2002 W43,2002-10-21,294,final,965
2002,44,2002 W44,2002-10-28,301,final,919
2002,45,2002 W45,2002-11-04,308,final,985
2002,46,2002 W46,2002-11-11,315,final,955
2002,47,2002 W47,2002-11-18,322,final,914
2002,48,2002 W48,2002-11-25,329,final,957
2002,49,2002 W49,2002-12-02,336,final,961
2002,50,2002 W50,2002-12-09,343,final,1065
2002,51,2002 W51,2002-12-16,350,final,1114
2002,52,2002 W52,2002-12-23,357,final,1160
2003,01,2003 W01,2002-12-30,364,final,1121
2003,02,2003 W02,2003-01-06,6,final,1045
2003,03,2003 W03,2003-01-13,13,final,1138
2003,04,2003 W04,2003-01-20,20,final,1043
2003,05,2003 W05,2003-01-27,27,final,1032
2003,06,2003 W06,2003-02-03,34,final,1023
2003,07,2003 W07,2003-02-10,41,final,1093
2003,08,2003 W08,2003-02-17,48,final,1039
2003,09,2003 W09,2003-02-24,55,final,1092
2003,10,2003 W10,2003-03-03,62,final,1178
2003,11,2003 W11,2003-03-10,69,final,1167
2003,12,2003 W12,2003-03-17,76,final,1184
2003,13,2003 W13,2003-03-24,83,final,1307
2003,14,2003 W14,2003-03-31,90,final,1186
2003,15,2003 W15,2003-04-07,97,final,1171
2003,16,2003 W16,2003-04-14,104,final,1080
2003,17,2003 W17,2003-04-21,111,final,1038
2003,18,2003 W18,2003-04-28,118,final,1039
2003,19,2003 W19,2003-05-05,125,final,1030
2003,20,2003 W20,2003-05-12,132,final,834
2003,21,2003 W21,2003-05-19,139,final,910
2003,22,2003 W22,2003-05-26,146,final,905
2003,23,2003 W23,2003-06-02,153,final,999
2003,24,2003 W24,2003-06-09,160,final,1143
2003,25,2003 W25,2003-06-16,167,final,898
2003,26,2003 W26,2003-06-23,174,final,886
2003,27,2003 W27,2003-06-30,181,final,859
2003,28,2003 W28,2003-07-07,188,final,838
2003,29,2003 W29,2003-07-14,195,final,973
2003,30,2003 W30,2003-07-21,202,final,1011
2003,31,2003 W31,2003-07-28,209,final,935
2003,32,2003 W32,2003-08-04,216,final,975
2003,33,2003 W33,2003-08-11,223,final,1005
2003,34,2003 W34,2003-08-18,230,final,930
2003,35,2003 W35,2003-08-25,237,final,914
2003,36,2003 W36,2003-09-01,244,final,910
2003,37,2003 W37,2003-09-08,251,final,894
2003,38,2003 W38,2003-09-15,258,final,941
2003,39,2003 W39,2003-09-22,265,final,901
2003,40,2003 W40,2003-09-29,272,final,981
2003,41,2003 W41,2003-10-06,279,final,881
2003,42,2003 W42,2003-10-13,286,final,920
2003,43,2003 W43,2003-10-20,293,final,988
2003,44,2003 W44,2003-10-27,300,final,1036
2003,45,2003 W45,2003-11-03,307,final,972
2003,46,2003 W46,2003-11-10,314,final,947
2003,47,2003 W47,2003-11-17,321,final,1003
2003,48,2003 W48,2003-11-24,328,final,939
2003,49,2003 W49,2003-12-01,335,final,917
2003,50,2003 W50,2003-12-08,342,final,1032
2003,51,2003 W51,2003-12-15,349,final,1031
2003,52,2003 W52,2003-12-22,356,final,1095
2004,01,2004 W01,2003-12-29,363,final,1135
2004,02,2004 W02,2004-01-05,5,final,1216
2004,03,2004 W03,2004-01-12,12,final,1096
2004,04,2004 W04,2004-01-19,19,final,1151
2004,05,2004 W05,2004-01-26,26,final,1166
2004,06,2004 W06,2004-02-02,33,final,1150
2004,07,2004 W07,2004-02-09,40,final,1087
2004,08,2004 W08,2004-02-16,47,final,1106
2004,09,2004 W09,2004-02-23,54,final,1074
2004,10,2004 W10,2004-03-01,61,final,1019
2004,11,2004 W11,2004-03-08,68,final,1008
2004,12,2004 W12,2004-03-15,75,final,1003
2004,13,2004 W13,2004-03-22,82,final,947
2004,14,2004 W14,2004-03-29,89,final,952
2004,15,2004 W15,2004-04-05,96,final,892
2004,16,2004 W16,2004-04-12,103,final,989
2004,17,2004 W17,2004-04-19,110,final,927
2004,18,2004 W18,2004-04-26,117,final,899
2004,19,2004 W19,2004-05-03,124,final,898
2004,20,2004 W20,2004-05-10,131,final,943
2004,21,2004 W21,2004-05-17,138,final,992
2004,22,2004 W22,2004-05-24,145,final,912
2004,23,2004 W23,2004-05-31,152,final,897
2004,24,2004 W24,2004-06-07,159,final,978
2004,25,2004 W25,2004-06-14,166,final,852
2004,26,2004 W26,2004-06-21,173,final,812
2004,27,2004 W27,2004-06-28,180,final,900
2004,28,2004 W28,2004-07-05,187,final,911
2004,29,2004 W29,2004-07-12,194,final,755
2004,30,2004 W30,2004-07-19,201,final,933
2004,31,2004 W31,2004-07-26,208,final,870
2004,32,2004 W32,2004-08-02,215,final,868
2004,33,2004 W33,2004-08-09,222,final,849
2004,34,2004 W34,2004-08-16,229,final,948
2004,35,2004 W35,2004-08-23,236,final,778
2004,36,2004 W36,2004-08-30,243,final,815
2004,37,2004 W37,2004-09-06,250,final,751
2004,38,2004 W38,2004-09-13,257,final,900
2004,39,2004 W39,2004-09-20,264,final,853
2004,40,2004 W40,2004-09-27,271,final,942
2004,41,2004 W41,2004-10-04,278,final,926
2004,42,2004 W42,2004-10-11,285,final,875
2004,43,2004 W43,2004-10-18,292,final,938
2004,44,2004 W44,2004-10-25,299,final,902
2004,45,2004 W45,2004-11-01,306,final,926
2004,46,2004 W46,2004-11-08,313,final,868
2004,47,2004 W47,2004-11-15,320,final,1015
2004,48,2004 W48,2004-11-22,327,final,919
2004,49,2004 W49,2004-11-29,334,final,992
2004,50,2004 W50,2004-12-06,341,final,918
2004,51,2004 W51,2004-12-13,348,final,1008
2004,52,2004 W52,2004-12-20,355,final,1005
2004,53,2004 W53,2004-12-27,362,final,1067
2005,01,2005 W01,2005-01-03,3,final,982
2005,02,2005 W02,2005-01-10,10,final,1055
2005,03,2005 W03,2005-01-17,17,final,1039
2005,04,2005 W04,2005-01-24,24,final,1094
2005,05,2005 W05,2005-01-31,31,final,1127
2005,06,2005 W06,2005-02-07,38,final,1176
2005,07,2005 W07,2005-02-14,45,final,1171
2005,08,2005 W08,2005-02-21,52,final,1194
2005,09,2005 W09,2005-02-28,59,final,1274
2005,10,2005 W10,2005-03-07,66,final,1271
2005,11,2005 W11,2005-03-14,73,final,1152
2005,12,2005 W12,2005-03-21,80,final,1155
2005,13,2005 W13,2005-03-28,87,final,1055
2005,14,2005 W14,2005-04-04,94,final,1007
2005,15,2005 W15,2005-04-11,101,final,944
2005,16,2005 W16,2005-04-18,108,final,1009
2005,17,2005 W17,2005-04-25,115,final,1062
2005,18,2005 W18,2005-05-02,122,final,1031
2005,19,2005 W19,2005-05-09,129,final,959
2005,20,2005 W20,2005-05-16,136,final,908
2005,21,2005 W21,2005-05-23,143,final,995
2005,22,2005 W22,2005-05-30,150,final,963
2005,23,2005 W23,2005-06-06,157,final,875
2005,24,2005 W24,2005-06-13,164,final,961
2005,25,2005 W25,2005-06-20,171,final,908
2005,26,2005 W26,2005-06-27,178,final,922
2005,27,2005 W27,2005-07-04,185,final,868
2005,28,2005 W28,2005-07-11,192,final,883
2005,29,2005 W29,2005-07-18,199,final,845
2005,30,2005 W30,2005-07-25,206,final,1002
2005,31,2005 W31,2005-08-01,213,final,844
2005,32,2005 W32,2005-08-08,220,final,824
2005,33,2005 W33,2005-08-15,227,final,865
2005,34,2005 W34,2005-08-22,234,final,909
2005,35,2005 W35,2005-08-29,241,final,851
2005,36,2005 W36,2005-09-05,248,final,887
2005,37,2005 W37,2005-09-12,255,final,824
2005,38,2005 W38,2005-09-19,262,final,874
2005,39,2005 W39,2005-09-26,269,final,900
2005,40,2005 W40,2005-10-03,276,final,945
2005,41,2005 W41,2005-10-10,283,final,906
2005,42,2005 W42,2005-10-17,290,final,1000
2005,43,2005 W43,2005-10-24,297,final,900
2005,44,2005 W44,2005-10-31,304,final,944
2005,45,2005 W45,2005-11-07,311,final,942
2005,46,2005 W46,2005-11-14,318,final,999
2005,47,2005 W47,2005-11-21,325,final,1040
2005,48,2005 W48,2005-11-28,332,final,989
2005,49,2005 W49,2005-12-05,339,final,1093
2005,50,2005 W50,2005-12-12,346,final,1030
2005,51,2005 W51,2005-12-19,353,final,1030
2005,52,2005 W52,2005-12-26,360,final,1175
2006,01,2006 W01,2006-01-02,2,final,1087
2006,02,2006 W02,2006-01-09,9,final,1044
2006,03,2006 W03,2006-01-16,16,final,998
2006,04,2006 W04,2006-01-23,23,final,1009
2006,05,2006 W05,2006-01-30,30,final,1039
2006,06,2006 W06,2006-02-06,37,final,1087
2006,07,2006 W07,2006-02-13,44,final,1067
2006,08,2006 W08,2006-02-20,51,final,1033
2006,09,2006 W09,2006-02-27,58,final,1026
2006,10,2006 W10,2006-03-06,65,final,1036
2006,11,2006 W11,2006-03-13,72,final,997
2006,12,2006 W12,2006-03-20,79,final,1065
2006,13,2006 W13,2006-03-27,86,final,994
2006,14,2006 W14,2006-04-03,93,final,922
2006,15,2006 W15,2006-04-10,100,final,1013
2006,16,2006 W16,2006-04-17,107,final,947
2006,17,2006 W17,2006-04-24,114,final,951
2006,18,2006 W18,2006-05-01,121,final,930
2006,19,2006 W19,2006-05-08,128,final,970
2006,20,2006 W20,2006-05-15,135,final,1011
2006,21,2006 W21,2006-05-22,142,final,963
2006,22,2006 W22,2006-05-29,149,final,859
2006,23,2006 W23,2006-06-05,156,final,906
2006,24,2006 W24,2006-06-12,163,final,971
2006,25,2006 W25,2006-06-19,170,final,1040
2006,26,2006 W26,2006-06-26,177,final,1093
2006,27,2006 W27,2006-07-03,184,final,892
2006,28,2006 W28,2006-07-10,191,final,885
2006,29,2006 W29,2006-07-17,198,final,952
2006,30,2006 W30,2006-07-24,205,final,1074
2006,31,2006 W31,2006-07-31,212,final,847
2006,32,2006 W32,2006-08-07,219,final,767
2006,33,2006 W33,2006-08-14,226,final,963
2006,34,2006 W34,2006-08-21,233,final,876
2006,35,2006 W35,2006-08-28,240,final,835
2006,36,2006 W36,2006-09-04,247,final,923
2006,37,2006 W37,2006-09-11,254,final,891
2006,38,2006 W38,2006-09-18,261,final,843
2006,39,2006 W39,2006-09-25,268,final,905
2006,40,2006 W40,2006-10-02,275,final,864
2006,41,2006 W41,2006-10-09,282,final,902
2006,42,2006 W42,2006-10-16,289,final,980
2006,43,2006 W43,2006-10-23,296,final,1003
2006,44,2006 W44,2006-10-30,303,final,917
2006,45,2006 W45,2006-11-06,310,final,981
2006,46,2006 W46,2006-11-13,317,final,984
2006,47,2006 W47,2006-11-20,324,final,952
2006,48,2006 W48,2006-11-27,331,final,918
2006,49,2006 W49,2006-12-04,338,final,952
2006,50,2006 W50,2006-12-11,345,final,1001
2006,51,2006 W51,2006-12-18,352,final,999
2006,52,2006 W52,2006-12-25,359,final,1029
2007,01,2007 W01,2007-01-01,1,final,1114
2007,02,2007 W02,2007-01-08,8,final,1023
2007,03,2007 W03,2007-01-15,15,final,1064
2007,04,2007 W04,2007-01-22,22,final,978
2007,05,2007 W05,2007-01-29,29,final,1096
2007,06,2007 W06,2007-02-05,36,final,1144
2007,07,2007 W07,2007-02-12,43,final,1230
2007,08,2007 W08,2007-02-19,50,final,1234
2007,09,2007 W09,2007-02-26,57,final,1211
2007,10,2007 W10,2007-03-05,64,final,1084
2007,11,2007 W11,2007-03-12,71,final,1026
2007,12,2007 W12,2007-03-19,78,final,1021
2007,13,2007 W13,2007-03-26,85,final,983
2007,14,2007 W14,2007-04-02,92,final,1021
2007,15,2007 W15,2007-04-09,99,final,1037
2007,16,2007 W16,2007-04-16,106,final,945
2007,17,2007 W17,2007-04-23,113,final,968
2007,18,2007 W18,2007-04-30,120,final,915
2007,19,2007 W19,2007-05-07,127,final,1010
2007,20,2007 W20,2007-05-14,134,final,936
2007,21,2007 W21,2007-05-21,141,final,1088
2007,22,2007 W22,2007-05-28,148,final,861
2007,23,2007 W23,2007-06-04,155,final,915
2007,24,2007 W24,2007-06-11,162,final,972
2007,25,2007 W25,2007-06-18,169,final,1075
2007,26,2007 W26,2007-06-25,176,final,931
2007,27,2007 W27,2007-07-02,183,final,886
2007,28,2007 W28,2007-07-09,190,final,878
2007,29,2007 W29,2007-07-16,197,final,1140
2007,30,2007 W30,2007-07-23,204,final,1091
2007,31,2007 W31,2007-07-30,211,final,886
2007,32,2007 W32,2007-08-06,218,final,910
2007,33,2007 W33,2007-08-13,225,final,890
2007,34,2007 W34,2007-08-20,232,final,870
2007,35,2007 W35,2007-08-27,239,final,843
2007,36,2007 W36,2007-09-03,246,final,901
2007,37,2007 W37,2007-09-10,253,final,909
2007,38,2007 W38,2007-09-17,260,final,934
2007,39,2007 W39,2007-09-24,267,final,905
2007,40,2007 W40,2007-10-01,274,final,931
2007,41,2007 W41,2007-10-08,281,final,952
2007,42,2007 W42,2007-10-15,288,final,1018
2007,43,2007 W43,2007-10-22,295,final,1039
2007,44,2007 W44,2007-10-29,302,final,1011
2007,45,2007 W45,2007-11-05,309,final,1064
2007,46,2007 W46,2007-11-12,316,final,1022
2007,47,2007 W47,2007-11-19,323,final,1018
2007,48,2007 W48,2007-11-26,330,final,1016
2007,49,2007 W49,2007-12-03,337,final,1074
2007,50,2007 W50,2007-12-10,344,final,964
2007,51,2007 W51,2007-12-17,351,final,1074
2007,52,2007 W52,2007-12-24,358,final,1073
2008,01,2008 W01,2007-12-31,365,final,1203
2008,02,2008 W02,2008-01-07,7,final,1173
2008,03,2008 W03,2008-01-14,14,final,1105
2008,04,2008 W04,2008-01-21,21,final,1082
2008,05,2008 W05,2008-01-28,28,final,1065
2008,06,2008 W06,2008-02-04,35,final,1054
2008,07,2008 W07,2008-02-11,42,final,1074
2008,08,2008 W08,2008-02-18,49,final,1144
2008,09,2008 W09,2008-02-25,56,final,1097
2008,10,2008 W10,2008-03-03,63,final,1058
2008,11,2008 W11,2008-03-10,70,final,984
2008,12,2008 W12,2008-03-17,77,final,1073
2008,13,2008 W13,2008-03-24,84,final,1138
2008,14,2008 W14,2008-03-31,91,final,1054
2008,15,2008 W15,2008-04-07,98,final,1063
2008,16,2008 W16,2008-04-14,105,final,971
2008,17,2008 W17,2008-04-21,112,final,993
2008,18,2008 W18,2008-04-28,119,final,920
2008,19,2008 W19,2008-05-05,126,final,961
2008,20,2008 W20,2008-05-12,133,final,1017
2008,21,2008 W21,2008-05-19,140,final,946
2008,22,2008 W22,2008-05-26,147,final,1011
2008,23,2008 W23,2008-06-02,154,final,917
2008,24,2008 W24,2008-06-09,161,final,875
2008,25,2008 W25,2008-06-16,168,final,951
2008,26,2008 W26,2008-06-23,175,final,1136
2008,27,2008 W27,2008-06-30,182,final,1003
2008,28,2008 W28,2008-07-07,189,final,927
2008,29,2008 W29,2008-07-14,196,final,832
2008,30,2008 W30,2008-07-21,203,final,869
2008,31,2008 W31,2008-07-28,210,final,957
2008,32,2008 W32,2008-08-04,217,final,961
2008,33,2008 W33,2008-08-11,224,final,941
2008,34,2008 W34,2008-08-18,231,final,820
2008,35,2008 W35,2008-08-25,238,final,908
2008,36,2008 W36,2008-09-01,245,final,983
2008,37,2008 W37,2008-09-08,252,final,891
2008,38,2008 W38,2008-09-15,259,final,877
2008,39,2008 W39,2008-09-22,266,final,966
2008,40,2008 W40,2008-09-29,273,final,1034
2008,41,2008 W41,2008-10-06,280,final,952
2008,42,2008 W42,2008-10-13,287,final,971
2008,43,2008 W43,2008-10-20,294,final,924
2008,44,2008 W44,2008-10-27,301,final,1011
2008,45,2008 W45,2008-11-03,308,final,958
2008,46,2008 W46,2008-11-10,315,final,931
2008,47,2008 W47,2008-11-17,322,final,953
2008,48,2008 W48,2008-11-24,329,final,1028
2008,49,2008 W49,2008-12-01,336,final,1010
2008,50,2008 W50,2008-12-08,343,final,1045
2008,51,2008 W51,2008-12-15,350,final,1043
2008,52,2008 W52,2008-12-22,357,final,1008
2009,01,2009 W01,2008-12-29,364,final,1141
2009,02,2009 W02,2009-01-05,5,final,1221
2009,03,2009 W03,2009-01-12,12,final,1305
2009,04,2009 W04,2009-01-19,19,final,1233
2009,05,2009 W05,2009-01-26,26,final,1141
2009,06,2009 W06,2009-02-02,33,final,1171
2009,07,2009 W07,2009-02-09,40,final,1095
2009,08,2009 W08,2009-02-16,47,final,1164
2009,09,2009 W09,2009-02-23,54,final,1153
2009,10,2009 W10,2009-03-02,61,final,1186
2009,11,2009 W11,2009-03-09,68,final,1116
2009,12,2009 W12,2009-03-16,75,final,1055
2009,13,2009 W13,2009-03-23,82,final,1117
2009,14,2009 W14,2009-03-30,89,final,963
2009,15,2009 W15,2009-04-06,96,final,999
2009,16,2009 W16,2009-04-13,103,final,975
2009,17,2009 W17,2009-04-20,110,final,943
2009,18,2009 W18,2009-04-27,117,final,987
2009,19,2009 W19,2009-05-04,124,final,996
2009,20,2009 W20,2009-05-11,131,final,974
2009,21,2009 W21,2009-05-18,138,final,965
2009,22,2009 W22,2009-05-25,145,final,875
2009,23,2009 W23,2009-06-01,152,final,964
2009,24,2009 W24,2009-06-08,159,final,901
2009,25,2009 W25,2009-06-15,166,final,949
2009,26,2009 W26,2009-06-22,173,final,905
2009,27,2009 W27,2009-06-29,180,final,938
2009,28,2009 W28,2009-07-06,187,final,841
2009,29,2009 W29,2009-07-13,194,final,979
2009,30,2009 W30,2009-07-20,201,final,937
2009,31,2009 W31,2009-07-27,208,final,963
2009,32,2009 W32,2009-08-03,215,final,899
2009,33,2009 W33,2009-08-10,222,final,937
2009,34,2009 W34,2009-08-17,229,final,930
2009,35,2009 W35,2009-08-24,236,final,935
2009,36,2009 W36,2009-08-31,243,final,912
2009,37,2009 W37,2009-09-07,250,final,826
2009,38,2009 W38,2009-09-14,257,final,911
2009,39,2009 W39,2009-09-21,264,final,844
2009,40,2009 W40,2009-09-28,271,final,875
2009,41,2009 W41,2009-10-05,278,final,966
2009,42,2009 W42,2009-10-12,285,final,974
2009,43,2009 W43,2009-10-19,292,final,1009
2009,44,2009 W44,2009-10-26,299,final,982
2009,45,2009 W45,2009-11-02,306,final,1010
2009,46,2009 W46,2009-11-09,313,final,967
2009,47,2009 W47,2009-11-16,320,final,965
2009,48,2009 W48,2009-11-23,327,final,1045
2009,49,2009 W49,2009-11-30,334,final,966
2009,50,2009 W50,2009-12-07,341,final,1024
2009,51,2009 W51,2009-12-14,348,final,1003
2009,52,2009 W52,2009-12-21,355,final,1128
2009,53,2009 W53,2009-12-28,362,final,1048
2010,01,2010 W01,2010-01-04,4,final,972
2010,02,2010 W02,2010-01-11,11,final,1041
2010,03,2010 W03,2010-01-18,18,final,1025
2010,04,2010 W04,2010-01-25,25,final,1092
2010,05,2010 W05,2010-02-01,32,final,1124
2010,06,2010 W06,2010-02-08,39,final,1076
2010,07,2010 W07,2010-02-15,46,final,1120
2010,08,2010 W08,2010-02-22,53,final,1039
2010,09,2010 W09,2010-03-01,60,final,993
2010,10,2010 W10,2010-03-08,67,final,1019
2010,11,2010 W11,2010-03-15,74,final,1109
2010,12,2010 W12,2010-03-22,81,final,1016
2010,13,2010 W13,2010-03-29,88,final,960
2010,14,2010 W14,2010-04-05,95,final,969
2010,15,2010 W15,2010-04-12,102,final,1053
2010,16,2010 W16,2010-04-19,109,final,1024
2010,17,2010 W17,2010-04-26,116,final,1038
2010,18,2010 W18,2010-05-03,123,final,920
2010,19,2010 W19,2010-05-10,130,final,916
2010,20,2010 W20,2010-05-17,137,final,968
2010,21,2010 W21,2010-05-24,144,final,1025
2010,22,2010 W22,2010-05-31,151,final,920
2010,23,2010 W23,2010-06-07,158,final,1042
2010,24,2010 W24,2010-06-14,165,final,1014
2010,25,2010 W25,2010-06-21,172,final,911
2010,26,2010 W26,2010-06-28,179,final,1063
2010,27,2010 W27,2010-07-05,186,final,883
2010,28,2010 W28,2010-07-12,193,final,1164
2010,29,2010 W29,2010-07-19,200,final,1011
2010,30,2010 W30,2010-07-26,207,final,860
2010,31,2010 W31,2010-08-02,214,final,919
2010,32,2010 W32,2010-08-09,221,final,953
2010,33,2010 W33,2010-08-16,228,final,911
2010,34,2010 W34,2010-08-23,235,final,953
2010,35,2010 W35,2010-08-30,242,final,840
2010,36,2010 W36,2010-09-06,249,final,910
2010,37,2010 W37,2010-09-13,256,final,969
2010,38,2010 W38,2010-09-20,263,final,1006
2010,39,2010 W39,2010-09-27,270,final,1004
2010,40,2010 W40,2010-10-04,277,final,950
2010,41,2010 W41,2010-10-11,284,final,1007
2010,42,2010 W42,2010-10-18,291,final,1011
2010,43,2010 W43,2010-10-25,298,final,1027
2010,44,2010 W44,2010-11-01,305,final,1047
2010,45,2010 W45,2010-11-08,312,final,972
2010,46,2010 W46,2010-11-15,319,final,954
2010,47,2010 W47,2010-11-22,326,final,967
2010,48,2010 W48,2010-11-29,333,final,1000
2010,49,2010 W49,2010-12-06,340,final,978
2010,50,2010 W50,2010-12-13,347,final,1049
2010,51,2010 W51,2010-12-20,354,final,1100
2010,52,2010 W52,2010-12-27,361,final,1104
2011,01,2011 W01,2011-01-03,3,final,1159
2011,02,2011 W02,2011-01-10,10,final,1077
2011,03,2011 W03,2011-01-17,17,final,1117
2011,04,2011 W04,2011-01-24,24,final,1083
2011,05,2011 W05,2011-01-31,31,final,1080
2011,06,2011 W06,2011-02-07,38,final,1179
2011,07,2011 W07,2011-02-14,45,final,1092
2011,08,2011 W08,2011-02-21,52,final,1055
2011,09,2011 W09,2011-02-28,59,final,1097
2011,10,2011 W10,2011-03-07,66,final,1062
2011,11,2011 W11,2011-03-14,73,final,1045
2011,12,2011 W12,2011-03-21,80,final,1044
2011,13,2011 W13,2011-03-28,87,final,995
2011,14,2011 W14,2011-04-04,94,final,997
2011,15,2011 W15,2011-04-11,101,final,934
2011,16,2011 W16,2011-04-18,108,final,991
2011,17,2011 W17,2011-04-25,115,final,923
2011,18,2011 W18,2011-05-02,122,final,973
2011,19,2011 W19,2011-05-09,129,final,966
2011,20,2011 W20,2011-05-16,136,final,931
2011,21,2011 W21,2011-05-23,143,final,1003
2011,22,2011 W22,2011-05-30,150,final,895
2011,23,2011 W23,2011-06-06,157,final,878
2011,24,2011 W24,2011-06-13,164,final,871
2011,25,2011 W25,2011-06-20,171,final,921
2011,26,2011 W26,2011-06-27,178,final,928
2011,27,2011 W27,2011-07-04,185,final,970
2011,28,2011 W28,2011-07-11,192,final,1071
2011,29,2011 W29,2011-07-18,199,final,852
2011,30,2011 W30,2011-07-25,206,final,894
2011,31,2011 W31,2011-08-01,213,final,949
2011,32,2011 W32,2011-08-08,220,final,818
2011,33,2011 W33,2011-08-15,227,final,946
2011,34,2011 W34,2011-08-22,234,final,985
2011,35,2011 W35,2011-08-29,241,final,888
2011,36,2011 W36,2011-09-05,248,final,870
2011,37,2011 W37,2011-09-12,255,final,861
2011,38,2011 W38,2011-09-19,262,final,869
2011,39,2011 W39,2011-09-26,269,final,886
2011,40,2011 W40,2011-10-03,276,final,931
2011,41,2011 W41,2011-10-10,283,final,943
2011,42,2011 W42,2011-10-17,290,final,953
2011,43,2011 W43,2011-10-24,297,final,925
2011,44,2011 W44,2011-10-31,304,final,923
2011,45,2011 W45,2011-11-07,311,final,1003
2011,46,2011 W46,2011-11-14,318,final,934
2011,47,2011 W47,2011-11-21,325,final,1043
2011,48,2011 W48,2011-11-28,332,final,1037
2011,49,2011 W49,2011-12-05,339,final,972
2011,50,2011 W50,2011-12-12,346,final,963
2011,51,2011 W51,2011-12-19,353,final,1014
2011,52,2011 W52,2011-12-26,360,final,1013
2012,01,2012 W01,2012-01-02,2,final,1076
2012,02,2012 W02,2012-01-09,9,final,1023
2012,03,2012 W03,2012-01-16,16,final,1063
2012,04,2012 W04,2012-01-23,23,final,988
2012,05,2012 W05,2012-01-30,30,final,1084
2012,06,2012 W06,2012-02-06,37,final,1182
2012,07,2012 W07,2012-02-13,44,final,1211
2012,08,2012 W08,2012-02-20,51,final,1155
2012,09,2012 W09,2012-02-27,58,final,1097
2012,10,2012 W10,2012-03-05,65,final,1093
2012,11,2012 W11,2012-03-12,72,final,1172
2012,12,2012 W12,2012-03-19,79,final,1171
2012,13,2012 W13,2012-03-26,86,final,1121
2012,14,2012 W14,2012-04-02,93,final,1039
2012,15,2012 W15,2012-04-09,100,final,1009
2012,16,2012 W16,2012-04-16,107,final,1002
2012,17,2012 W17,2012-04-23,114,final,975
2012,18,2012 W18,2012-04-30,121,final,1035
2012,19,2012 W19,2012-05-07,128,final,939
2012,20,2012 W20,2012-05-14,135,final,884
2012,21,2012 W21,2012-05-21,142,final,948
2012,22,2012 W22,2012-05-28,149,final,959
2012,23,2012 W23,2012-06-04,156,final,985
2012,24,2012 W24,2012-06-11,163,final,908
2012,25,2012 W25,2012-06-18,170,final,1090
2012,26,2012 W26,2012-06-25,177,final,897
2012,27,2012 W27,2012-07-02,184,final,1090
2012,28,2012 W28,2012-07-09,191,final,1020
2012,29,2012 W29,2012-07-16,198,final,845
2012,30,2012 W30,2012-07-23,205,final,885
2012,31,2012 W31,2012-07-30,212,final,998
2012,32,2012 W32,2012-08-06,219,final,963
2012,33,2012 W33,2012-08-13,226,final,895
2012,34,2012 W34,2012-08-20,233,final,924
2012,35,2012 W35,2012-08-27,240,final,838
2012,36,2012 W36,2012-09-03,247,final,792
2012,37,2012 W37,2012-09-10,254,final,858
2012,38,2012 W38,2012-09-17,261,final,890
2012,39,2012 W39,2012-09-24,268,final,1001
2012,40,2012 W40,2012-10-01,275,final,918
2012,41,2012 W41,2012-10-08,282,final,951
2012,42,2012 W42,2012-10-15,289,final,886
2012,43,2012 W43,2012-10-22,296,final,890
2012,44,2012 W44,2012-10-29,303,final,944
2012,45,2012 W45,2012-11-05,310,final,975
2012,46,2012 W46,2012-11-12,317,final,907
2012,47,2012 W47,2012-11-19,324,final,960
2012,48,2012 W48,2012-11-26,331,final,954
2012,49,2012 W49,2012-12-03,338,final,946
2012,50,2012 W50,2012-12-10,345,final,1049
2012,51,2012 W51,2012-12-17,352,final,962
2012,52,2012 W52,2012-12-24,359,final,1034
2013,01,2013 W01,2012-12-31,366,final,1020
2013,02,2013 W02,2013-01-07,7,final,983
2013,03,2013 W03,2013-01-14,14,final,1027
2013,04,2013 W04,2013-01-21,21,final,1093
2013,05,2013 W05,2013-01-28,28,final,1010
2013,06,2013 W06,2013-02-04,35,final,985
2013,07,2013 W07,2013-02-11,42,final,1056
2013,08,2013 W08,2013-02-18,49,final,1060
2013,09,2013 W09,2013-02-25,56,final,1010
2013,10,2013 W10,2013-03-04,63,final,1152
2013,11,2013 W11,2013-03-11,70,final,1058
2013,12,2013 W12,2013-03-18,77,final,1067
2013,13,2013 W13,2013-03-25,84,final,1064
2013,14,2013 W14,2013-04-01,91,final,1020
2013,15,2013 W15,2013-04-08,98,final,981
2013,16,2013 W16,2013-04-15,105,final,967
2013,17,2013 W17,2013-04-22,112,final,929
2013,18,2013 W18,2013-04-29,119,final,951
2013,19,2013 W19,2013-05-06,126,final,877
2013,20,2013 W20,2013-05-13,133,final,862
2013,21,2013 W21,2013-05-20,140,final,849
2013,22,2013 W22,2013-05-27,147,final,899
2013,23,2013 W23,2013-06-03,154,final,969
2013,24,2013 W24,2013-06-10,161,final,934
2013,25,2013 W25,2013-06-17,168,final,1139
2013,26,2013 W26,2013-06-24,175,final,836
2013,27,2013 W27,2013-07-01,182,final,885
2013,28,2013 W28,2013-07-08,189,final,851
2013,29,2013 W29,2013-07-15,196,final,874
2013,30,2013 W30,2013-07-22,203,final,949
2013,31,2013 W31,2013-07-29,210,final,965
2013,32,2013 W32,2013-08-05,217,final,1043
2013,33,2013 W33,2013-08-12,224,final,914
2013,34,2013 W34,2013-08-19,231,final,878
2013,35,2013 W35,2013-08-26,238,final,783
2013,36,2013 W36,2013-09-02,245,final,841
2013,37,2013 W37,2013-09-09,252,final,903
2013,38,2013 W38,2013-09-16,259,final,940
2013,39,2013 W39,2013-09-23,266,final,940
2013,40,2013 W40,2013-09-30,273,final,951
2013,41,2013 W41,2013-10-07,280,final,947
2013,42,2013 W42,2013-10-14,287,final,928
2013,43,2013 W43,2013-10-21,294,final,954
2013,44,2013 W44,2013-10-28,301,final,904
2013,45,2013 W45,2013-11-04,308,final,912
2013,46,2013 W46,2013-11-11,315,final,883
2013,47,2013 W47,2013-11-18,322,final,968
2013,48,2013 W48,2013-11-25,329,final,1017
2013,49,2013 W49,2013-12-02,336,final,1046
2013,50,2013 W50,2013-12-09,343,final,1007
2013,51,2013 W51,2013-12-16,350,final,1100
2013,52,2013 W52,2013-12-23,357,final,1005
2014,01,2014 W01,2013-12-30,364,final,974
2014,02,2014 W02,2014-01-06,6,final,991
2014,03,2014 W03,2014-01-13,13,final,1009
2014,04,2014 W04,2014-01-20,20,final,1008
2014,05,2014 W05,2014-01-27,27,final,1053
2014,06,2014 W06,2014-02-03,34,final,1045
2014,07,2014 W07,2014-02-10,41,final,1043
2014,08,2014 W08,2014-02-17,48,final,986
2014,09,2014 W09,2014-02-24,55,final,1001
2014,10,2014 W10,2014-03-03,62,final,1023
2014,11,2014 W11,2014-03-10,69,final,1072
2014,12,2014 W12,2014-03-17,76,final,1020
2014,13,2014 W13,2014-03-24,83,final,1047
2014,14,2014 W14,2014-03-31,90,final,1079
2014,15,2014 W15,2014-04-07,97,final,938
2014,16,2014 W16,2014-04-14,104,final,990
2014,17,2014 W17,2014-04-21,111,final,1007
2014,18,2014 W18,2014-04-28,118,final,896
2014,19,2014 W19,2014-05-05,125,final,1014
2014,20,2014 W20,2014-05-12,132,final,896
2014,21,2014 W21,2014-05-19,139,final,968
2014,22,2014 W22,2014-05-26,146,final,893
2014,23,2014 W23,2014-06-02,153,final,958
2014,24,2014 W24,2014-06-09,160,final,1041
2014,25,2014 W25,2014-06-16,167,final,877
2014,26,2014 W26,2014-06-23,174,final,942
2014,27,2014 W27,2014-06-30,181,final,876
2014,28,2014 W28,2014-07-07,188,final,911
2014,29,2014 W29,2014-07-14,195,final,955
2014,30,2014 W30,2014-07-21,202,final,918
2014,31,2014 W31,2014-07-28,209,final,888
2014,32,2014 W32,2014-08-04,216,final,943
2014,33,2014 W33,2014-08-11,223,final,955
2014,34,2014 W34,2014-08-18,230,final,847
2014,35,2014 W35,2014-08-25,237,final,896
2014,36,2014 W36,2014-09-01,244,final,946
2014,37,2014 W37,2014-09-08,251,final,931
2014,38,2014 W38,2014-09-15,258,final,925
2014,39,2014 W39,2014-09-22,265,final,926
2014,40,2014 W40,2014-09-29,272,final,942
2014,41,2014 W41,2014-10-06,279,final,997
2014,42,2014 W42,2014-10-13,286,final,960
2014,43,2014 W43,2014-10-20,293,final,939
2014,44,2014 W44,2014-10-27,300,final,1002
2014,45,2014 W45,2014-11-03,307,final,1034
2014,46,2014 W46,2014-11-10,314,final,922
2014,47,2014 W47,2014-11-17,321,final,945
2014,48,2014 W48,2014-11-24,328,final,1001
2014,49,2014 W49,2014-12-01,335,final,992
2014,50,2014 W50,2014-12-08,342,final,1036
2014,51,2014 W51,2014-12-15,349,final,1080
2014,52,2014 W52,2014-12-22,356,final,1110
2015,01,2015 W01,2014-12-29,363,final,1177
2015,02,2015 W02,2015-01-05,5,final,1254
2015,03,2015 W03,2015-01-12,12,final,1276
2015,04,2015 W04,2015-01-19,19,final,1231
2015,05,2015 W05,2015-01-26,26,final,1215
2015,06,2015 W06,2015-02-02,33,final,1287
2015,07,2015 W07,2015-02-09,40,final,1306
2015,08,2015 W08,2015-02-16,47,final,1301
2015,09,2015 W09,2015-02-23,54,final,1239
2015,10,2015 W10,2015-03-02,61,final,1215
2015,11,2015 W11,2015-03-09,68,final,1208
2015,12,2015 W12,2015-03-16,75,final,1232
2015,13,2015 W13,2015-03-23,82,final,1085
2015,14,2015 W14,2015-03-30,89,final,1137
2015,15,2015 W15,2015-04-06,96,final,1078
2015,16,2015 W16,2015-04-13,103,final,1026
2015,17,2015 W17,2015-04-20,110,final,1041
2015,18,2015 W18,2015-04-27,117,final,1019
2015,19,2015 W19,2015-05-04,124,final,1011
2015,20,2015 W20,2015-05-11,131,final,926
2015,21,2015 W21,2015-05-18,138,final,947
2015,22,2015 W22,2015-05-25,145,final,855
2015,23,2015 W23,2015-06-01,152,final,998
2015,24,2015 W24,2015-06-08,159,final,1000
2015,25,2015 W25,2015-06-15,166,final,875
2015,26,2015 W26,2015-06-22,173,final,880
2015,27,2015 W27,2015-06-29,180,final,996
2015,28,2015 W28,2015-07-06,187,final,1010
2015,29,2015 W29,2015-07-13,194,final,1049
2015,30,2015 W30,2015-07-20,201,final,1230
2015,31,2015 W31,2015-07-27,208,final,918
2015,32,2015 W32,2015-08-03,215,final,1040
2015,33,2015 W33,2015-08-10,222,final,1066
2015,34,2015 W34,2015-08-17,229,final,827
2015,35,2015 W35,2015-08-24,236,final,929
2015,36,2015 W36,2015-08-31,243,final,911
2015,37,2015 W37,2015-09-07,250,final,909
2015,38,2015 W38,2015-09-14,257,final,1057
2015,39,2015 W39,2015-09-21,264,final,891
2015,40,2015 W40,2015-09-28,271,final,927
2015,41,2015 W41,2015-10-05,278,final,914
2015,42,2015 W42,2015-10-12,285,final,945
2015,43,2015 W43,2015-10-19,292,final,949
2015,44,2015 W44,2015-10-26,299,final,953
2015,45,2015 W45,2015-11-02,306,final,1004
2015,46,2015 W46,2015-11-09,313,final,951
2015,47,2015 W47,2015-11-16,320,final,938
2015,48,2015 W48,2015-11-23,327,final,955
2015,49,2015 W49,2015-11-30,334,final,982
2015,50,2015 W50,2015-12-07,341,final,953
2015,51,2015 W51,2015-12-14,348,final,938
2015,52,2015 W52,2015-12-21,355,final,1033
2015,53,2015 W53,2015-12-28,362,final,1046
2016,01,2016 W01,2016-01-04,4,final,1115
2016,02,2016 W02,2016-01-11,11,final,1032
2016,03,2016 W03,2016-01-18,18,final,1074
2016,04,2016 W04,2016-01-25,25,final,1114
2016,05,2016 W05,2016-02-01,32,final,1024
2016,06,2016 W06,2016-02-08,39,final,1063
2016,07,2016 W07,2016-02-15,46,final,989
2016,08,2016 W08,2016-02-22,53,final,980
2016,09,2016 W09,2016-02-29,60,final,987
2016,10,2016 W10,2016-03-07,67,final,1047
2016,11,2016 W11,2016-03-14,74,final,1034
2016,12,2016 W12,2016-03-21,81,final,1008
2016,13,2016 W13,2016-03-28,88,final,1086
2016,14,2016 W14,2016-04-04,95,final,1003
2016,15,2016 W15,2016-04-11,102,final,966
2016,16,2016 W16,2016-04-18,109,final,931
2016,17,2016 W17,2016-04-25,116,final,940
2016,18,2016 W18,2016-05-02,123,final,1005
2016,19,2016 W19,2016-05-09,130,final,912
2016,20,2016 W20,2016-05-16,137,final,987
2016,21,2016 W21,2016-05-23,144,final,1003
2016,22,2016 W22,2016-05-30,151,final,963
2016,23,2016 W23,2016-06-06,158,final,903
2016,24,2016 W24,2016-06-13,165,final,906
2016,25,2016 W25,2016-06-20,172,final,975
2016,26,2016 W26,2016-06-27,179,final,906
2016,27,2016 W27,2016-07-04,186,final,874
2016,28,2016 W28,2016-07-11,193,final,910
2016,29,2016 W29,2016-07-18,200,final,904
2016,30,2016 W30,2016-07-25,207,final,942
2016,31,2016 W31,2016-08-01,214,final,874
2016,32,2016 W32,2016-08-08,221,final,804
2016,33,2016 W33,2016-08-15,228,final,930
2016,34,2016 W34,2016-08-22,235,final,951
2016,35,2016 W35,2016-08-29,242,final,911
2016,36,2016 W36,2016-09-05,249,final,897
2016,37,2016 W37,2016-09-12,256,final,903
2016,38,2016 W38,2016-09-19,263,final,876
2016,39,2016 W39,2016-09-26,270,final,1008
2016,40,2016 W40,2016-10-03,277,final,958
2016,41,2016 W41,2016-10-10,284,final,1029
2016,42,2016 W42,2016-10-17,291,final,944
2016,43,2016 W43,2016-10-24,298,final,968
2016,44,2016 W44,2016-10-31,305,final,971
2016,45,2016 W45,2016-11-07,312,final,1006
2016,46,2016 W46,2016-11-14,319,final,984
2016,47,2016 W47,2016-11-21,326,final,1007
2016,48,2016 W48,2016-11-28,333,final,975
2016,49,2016 W49,2016-12-05,340,final,1067
2016,50,2016 W50,2016-12-12,347,final,1157
2016,51,2016 W51,2016-12-19,354,final,1188
2016,52,2016 W52,2016-12-26,361,final,1263
2017,01,2017 W01,2017-01-02,2,final,1465
2017,02,2017 W02,2017-01-09,9,final,1621
2017,03,2017 W03,2017-01-16,16,final,1475
2017,04,2017 W04,2017-01-23,23,final,1369
2017,05,2017 W05,2017-01-30,30,final,1304
2017,06,2017 W06,2017-02-06,37,final,1164
2017,07,2017 W07,2017-02-13,44,final,1118
2017,08,2017 W08,2017-02-20,51,final,1072
2017,09,2017 W09,2017-02-27,58,final,1104
2017,10,2017 W10,2017-03-06,65,final,983
2017,11,2017 W11,2017-03-13,72,final,1035
2017,12,2017 W12,2017-03-20,79,final,1038
2017,13,2017 W13,2017-03-27,86,final,969
2017,14,2017 W14,2017-04-03,93,final,995
2017,15,2017 W15,2017-04-10,100,final,970
2017,16,2017 W16,2017-04-17,107,final,996
2017,17,2017 W17,2017-04-24,114,final,1025
2017,18,2017 W18,2017-05-01,121,final,999
2017,19,2017 W19,2017-05-08,128,final,925
2017,20,2017 W20,2017-05-15,135,final,931
2017,21,2017 W21,2017-05-22,142,final,894
2017,22,2017 W22,2017-05-29,149,final,984
2017,23,2017 W23,2017-06-05,156,final,906
2017,24,2017 W24,2017-06-12,163,final,857
2017,25,2017 W25,2017-06-19,170,final,1004
2017,26,2017 W26,2017-06-26,177,final,933
2017,27,2017 W27,2017-07-03,184,final,973
2017,28,2017 W28,2017-07-10,191,final,1010
2017,29,2017 W29,2017-07-17,198,final,979
2017,30,2017 W30,2017-07-24,205,final,863
2017,31,2017 W31,2017-07-31,212,final,1106
2017,32,2017 W32,2017-08-07,219,final,1022
2017,33,2017 W33,2017-08-14,226,final,850
2017,34,2017 W34,2017-08-21,233,final,876
2017,35,2017 W35,2017-08-28,240,final,917
2017,36,2017 W36,2017-09-04,247,final,875
2017,37,2017 W37,2017-09-11,254,final,862
2017,38,2017 W38,2017-09-18,261,final,918
2017,39,2017 W39,2017-09-25,268,final,969
2017,40,2017 W40,2017-10-02,275,final,965
2017,41,2017 W41,2017-10-09,282,final,994
2017,42,2017 W42,2017-10-16,289,final,939
2017,43,2017 W43,2017-10-23,296,final,945
2017,44,2017 W44,2017-10-30,303,final,1000
2017,45,2017 W45,2017-11-06,310,final,977
2017,46,2017 W46,2017-11-13,317,final,985
2017,47,2017 W47,2017-11-20,324,final,940
2017,48,2017 W48,2017-11-27,331,final,1020
2017,49,2017 W49,2017-12-04,338,final,1038
2017,50,2017 W50,2017-12-11,345,final,1028
2017,51,2017 W51,2017-12-18,352,final,989
2017,52,2017 W52,2017-12-25,359,final,1093
2018,01,2018 W01,2018-01-01,1,final,1128
2018,02,2018 W02,2018-01-08,8,final,1165
2018,03,2018 W03,2018-01-15,15,final,1203
2018,04,2018 W04,2018-01-22,22,final,1137
2018,05,2018 W05,2018-01-29,29,final,1146
2018,06,2018 W06,2018-02-05,36,final,1154
2018,07,2018 W07,2018-02-12,43,final,1157
2018,08,2018 W08,2018-02-19,50,final,1134
2018,09,2018 W09,2018-02-26,57,final,1225
2018,10,2018 W10,2018-03-05,64,final,1266
2018,11,2018 W11,2018-03-12,71,final,1165
2018,12,2018 W12,2018-03-19,78,final,1072
2018,13,2018 W13,2018-03-26,85,final,1061
2018,14,2018 W14,2018-04-02,92,final,1065
2018,15,2018 W15,2018-04-09,99,final,1007
2018,16,2018 W16,2018-04-16,106,final,947
2018,17,2018 W17,2018-04-23,113,final,1028
2018,18,2018 W18,2018-04-30,120,final,878
2018,19,2018 W19,2018-05-07,127,final,935
2018,20,2018 W20,2018-05-14,134,final,919
2018,21,2018 W21,2018-05-21,141,final,930
2018,22,2018 W22,2018-05-28,148,final,950
2018,23,2018 W23,2018-06-04,155,final,917
2018,24,2018 W24,2018-06-11,162,final,901
2018,25,2018 W25,2018-06-18,169,final,845
2018,26,2018 W26,2018-06-25,176,final,884
2018,27,2018 W27,2018-07-02,183,final,985
2018,28,2018 W28,2018-07-09,190,final,947
2018,29,2018 W29,2018-07-16,197,final,911
2018,30,2018 W30,2018-07-23,204,final,916
2018,31,2018 W31,2018-07-30,211,final,1044
2018,32,2018 W32,2018-08-06,218,final,1030
2018,33,2018 W33,2018-08-13,225,final,956
2018,34,2018 W34,2018-08-20,232,final,939
2018,35,2018 W35,2018-08-27,239,final,879
2018,36,2018 W36,2018-09-03,246,final,918
2018,37,2018 W37,2018-09-10,253,final,929
2018,38,2018 W38,2018-09-17,260,final,926
2018,39,2018 W39,2018-09-24,267,final,913
2018,40,2018 W40,2018-10-01,274,final,1035
2018,41,2018 W41,2018-10-08,281,final,957
2018,42,2018 W42,2018-10-15,288,final,959
2018,43,2018 W43,2018-10-22,295,final,1004
2018,44,2018 W44,2018-10-29,302,final,950
2018,45,2018 W45,2018-11-05,309,final,925
2018,46,2018 W46,2018-11-12,316,final,986
2018,47,2018 W47,2018-11-19,323,final,981
2018,48,2018 W48,2018-11-26,330,final,1009
2018,49,2018 W49,2018-12-03,337,final,982
2018,50,2018 W50,2018-12-10,344,final,1070
2018,51,2018 W51,2018-12-17,351,final,1078
2018,52,2018 W52,2018-12-24,358,final,1114
2019,01,2019 W01,2018-12-31,365,final,1154
2019,02,2019 W02,2019-01-07,7,final,1220
2019,03,2019 W03,2019-01-14,14,final,1238
2019,04,2019 W04,2019-01-21,21,final,1319
2019,05,2019 W05,2019-01-28,28,final,1286
2019,06,2019 W06,2019-02-04,35,final,1133
2019,07,2019 W07,2019-02-11,42,final,1126
2019,08,2019 W08,2019-02-18,49,final,1093
2019,09,2019 W09,2019-02-25,56,final,1031
2019,10,2019 W10,2019-03-04,63,final,1130
2019,11,2019 W11,2019-03-11,70,final,1018
2019,12,2019 W12,2019-03-18,77,final,970
2019,13,2019 W13,2019-03-25,84,final,987
2019,14,2019 W14,2019-04-01,91,final,1032
2019,15,2019 W15,2019-04-08,98,final,958
2019,16,2019 W16,2019-04-15,105,final,914
2019,17,2019 W17,2019-04-22,112,final,1033
2019,18,2019 W18,2019-04-29,119,final,947
2019,19,2019 W19,2019-05-06,126,final,958
2019,20,2019 W20,2019-05-13,133,final,943
2019,21,2019 W21,2019-05-20,140,final,952
2019,22,2019 W22,2019-05-27,147,final,893
2019,23,2019 W23,2019-06-03,154,final,1024
2019,24,2019 W24,2019-06-10,161,final,1040
2019,25,2019 W25,2019-06-17,168,final,909
2019,26,2019 W26,2019-06-24,175,final,960
2019,27,2019 W27,2019-07-01,182,final,930
2019,28,2019 W28,2019-07-08,189,final,870
2019,29,2019 W29,2019-07-15,196,final,933
2019,30,2019 W30,2019-07-22,203,final,985
2019,31,2019 W31,2019-07-29,210,final,865
2019,32,2019 W32,2019-08-05,217,final,892
2019,33,2019 W33,2019-08-12,224,final,884
2019,34,2019 W34,2019-08-19,231,final,928
2019,35,2019 W35,2019-08-26,238,final,939
2019,36,2019 W36,2019-09-02,245,final,831
2019,37,2019 W37,2019-09-09,252,final,893
2019,38,2019 W38,2019-09-16,259,final,875
2019,39,2019 W39,2019-09-23,266,final,944
2019,40,2019 W40,2019-09-30,273,final,921
2019,41,2019 W41,2019-10-07,280,final,975
2019,42,2019 W42,2019-10-14,287,final,942
2019,43,2019 W43,2019-10-21,294,final,919
2019,44,2019 W44,2019-10-28,301,final,940
2019,45,2019 W45,2019-11-04,308,final,966
2019,46,2019 W46,2019-11-11,315,final,999
2019,47,2019 W47,2019-11-18,322,final,915
2019,48,2019 W48,2019-11-25,329,final,915
2019,49,2019 W49,2019-12-02,336,final,989
2019,50,2019 W50,2019-12-09,343,final,1021
2019,51,2019 W51,2019-12-16,350,final,1048
2019,52,2019 W52,2019-12-23,357,final,1024
2020,01,2020 W01,2019-12-30,364,final,1033
2020,02,2020 W02,2020-01-06,6,final,1056
2020,03,2020 W03,2020-01-13,13,final,1016
2020,04,2020 W04,2020-01-20,20,final,1134
2020,05,2020 W05,2020-01-27,27,final,1094
2020,06,2020 W06,2020-02-03,34,final,1059
2020,07,2020 W07,2020-02-10,41,final,1091
2020,08,2020 W08,2020-02-17,48,final,1045
2020,09,2020 W09,2020-02-24,55,final,1021
2020,10,2020 W10,2020-03-02,62,final,1056
2020,11,2020 W11,2020-03-09,69,final,1082
2020,12,2020 W12,2020-03-16,76,final,1094
2020,13,2020 W13,2020-03-23,83,final,1122
2020,14,2020 W14,2020-03-30,90,final,1012
2020,15,2020 W15,2020-04-06,97,final,1001
2020,16,2020 W16,2020-04-13,104,final,978
2020,17,2020 W17,2020-04-20,111,final,868
2020,18,2020 W18,2020-04-27,118,final,909
2020,19,2020 W19,2020-05-04,125,final,880
2020,20,2020 W20,2020-05-11,132,final,908
2020,21,2020 W21,2020-05-18,139,final,904
2020,22,2020 W22,2020-05-25,146,final,848
2020,23,2020 W23,2020-06-01,153,final,972
2020,24,2020 W24,2020-06-08,160,final,979
2020,25,2020 W25,2020-06-15,167,final,889
2020,26,2020 W26,2020-06-22,174,final,927
2020,27,2020 W27,2020-06-29,181,final,970
2020,28,2020 W28,2020-07-06,188,final,919
2020,29,2020 W29,2020-07-13,195,final,888
2020,30,2020 W30,2020-07-20,202,final,974
2020,31,2020 W31,2020-07-27,209,final,1059
2020,32,2020 W32,2020-08-03,216,final,956
2020,33,2020 W33,2020-08-10,223,final,926
2020,34,2020 W34,2020-08-17,230,final,921
2020,35,2020 W35,2020-08-24,237,final,972
2020,36,2020 W36,2020-08-31,244,final,931
2020,37,2020 W37,2020-09-07,251,final,1000
2020,38,2020 W38,2020-09-14,258,final,975
2020,39,2020 W39,2020-09-21,265,final,963
2020,40,2020 W40,2020-09-28,272,final,1065
2020,41,2020 W41,2020-10-05,279,final,970
2020,42,2020 W42,2020-10-12,286,final,1096
2020,43,2020 W43,2020-10-19,293,final,1136
2020,44,2020 W44,2020-10-26,300,final,1156
2020,45,2020 W45,2020-11-02,307,final,1287
2020,46,2020 W46,2020-11-09,314,final,1361
2020,47,2020 W47,2020-11-16,321,final,1489
2020,48,2020 W48,2020-11-23,328,final,1484
2020,49,2020 W49,2020-11-30,335,final,1713
2020,50,2020 W50,2020-12-07,342,final,1761
2020,51,2020 W51,2020-12-14,349,final,1785
2020,52,2020 W52,2020-12-21,356,final,1681
2020,53,2020 W53,2020-12-28,363,provisional,1525
2021,01,2021 W01,2021-01-04,4,provisional,1342
2021,02,2021 W02,2021-01-11,11,provisional,1358
2021,03,2021 W03,2021-01-18,18,provisional,1307
2021,04,2021 W04,2021-01-25,25,provisional,1244
2021,05,2021 W05,2021-02-01,32,provisional,1204
2021,06,2021 W06,2021-02-08,39,provisional,1161
2021,07,2021 W07,2021-02-15,46,provisional,1121
2021,08,2021 W08,2021-02-22,53,provisional,1096
2021,09,2021 W09,2021-03-01,60,provisional,1034
2021,10,2021 W10,2021-03-08,67,provisional,1080
2021,11,2021 W11,2021-03-15,74,provisional,1021
2021,12,2021 W12,2021-03-22,81,provisional,1142
2021,13,2021 W13,2021-03-29,88,provisional,1231
2021,14,2021 W14,2021-04-05,95,provisional,1283
2021,15,2021 W15,2021-04-12,102,provisional,1289
2021,16,2021 W16,2021-04-19,109,provisional,1318
2021,17,2021 W17,2021-04-26,116,provisional,1341
2021,18,2021 W18,2021-05-03,123,provisional,1252
2021,19,2021 W19,2021-05-10,130,provisional,1255
2021,20,2021 W20,2021-05-17,137,provisional,1106
2021,21,2021 W21,2021-05-24,144,provisional,1047
2021,22,2021 W22,2021-05-31,151,provisional,1143
2021,23,2021 W23,2021-06-07,158,provisional,1061
2021,24,2021 W24,2021-06-14,165,provisional,1030
2021,25,2021 W25,2021-06-21,172,provisional,1116
2021,26,2021 W26,2021-06-28,179,provisional,982
2021,27,2021 W27,2021-07-05,186,provisional,1002
2021,28,2021 W28,2021-07-12,193,provisional,991
2021,29,2021 W29,2021-07-19,200,provisional,909
2021,30,2021 W30,2021-07-26,207,provisional,1069
2021,31,2021 W31,2021-08-02,214,provisional,957
2021,32,2021 W32,2021-08-09,221,provisional,1063
2021,33,2021 W33,2021-08-16,228,provisional,996
2021,34,2021 W34,2021-08-23,235,provisional,963
2021,35,2021 W35,2021-08-30,242,provisional,1043
2021,36,2021 W36,2021-09-06,249,provisional,1092
2021,37,2021 W37,2021-09-13,256,provisional,1111
2021,38,2021 W38,2021-09-20,263,provisional,1080
2021,39,2021 W39,2021-09-27,270,provisional,1106
2021,40,2021 W40,2021-10-04,277,provisional,1099
2021,41,2021 W41,2021-10-11,284,provisional,1130
2021,42,2021 W42,2021-10-18,291,provisional,1218
2021,43,2021 W43,2021-10-25,298,provisional,1325
2021,44,2021 W44,2021-11-01,305,provisional,1404
2021,45,2021 W45,2021-11-08,312,provisional,1535
2021,46,2021 W46,2021-11-15,319,provisional,1563
2021,47,2021 W47,2021-11-22,326,provisional,1716
2021,48,2021 W48,2021-11-29,333,provisional,1636
2021,49,2021 W49,2021-12-06,340,provisional,1568
2021,50,2021 W50,2021-12-13,347,provisional,1536
2021,51,2021 W51,2021-12-20,354,provisional,1488
2021,52,2021 W52,2021-12-27,361,provisional,1478
2022,01,2022 W01,2022-01-03,3,provisional,1414
2022,02,2022 W02,2022-01-10,10,provisional,1404
2022,03,2022 W03,2022-01-17,17,provisional,1452
2022,04,2022 W04,2022-01-24,24,provisional,1557
2022,05,2022 W05,2022-01-31,31,provisional,1610
2022,06,2022 W06,2022-02-07,38,provisional,1413
2022,07,2022 W07,2022-02-14,45,provisional,1419
2022,08,2022 W08,2022-02-21,52,provisional,1233
2022,09,2022 W09,2022-02-28,59,provisional,1217
2022,10,2022 W10,2022-03-07,66,provisional,1137
2022,11,2022 W11,2022-03-14,73,provisional,1178
2022,12,2022 W12,2022-03-21,80,provisional,1089
2022,13,2022 W13,2022-03-28,87,provisional,1096
2022,14,2022 W14,2022-04-04,94,provisional,1079
2022,15,2022 W15,2022-04-11,101,provisional,1085
2022,16,2022 W16,2022-04-18,108,provisional,1039
2022,17,2022 W17,2022-04-25,115,provisional,997
2022,18,2022 W18,2022-05-02,122,provisional,1030
2022,19,2022 W19,2022-05-09,129,provisional,1016
2022,20,2022 W20,2022-05-16,136,provisional,869
2022,21,2022 W21,2022-05-23,143,provisional,901
2022,22,2022 W22,2022-05-30,150,provisional,927
2022,23,2022 W23,2022-06-06,157,provisional,952
2022,24,2022 W24,2022-06-13,164,provisional,872
2022,25,2022 W25,2022-06-20,171,provisional,993
2022,26,2022 W26,2022-06-27,178,provisional,1016
2022,27,2022 W27,2022-07-04,185,provisional,1047
2022,28,2022 W28,2022-07-11,192,provisional,950
2022,29,2022 W29,2022-07-18,199,provisional,1108
2022,30,2022 W30,2022-07-25,206,provisional,1113
2022,31,2022 W31,2022-08-01,213,provisional,1098
2022,32,2022 W32,2022-08-08,220,provisional,990
2022,33,2022 W33,2022-08-15,227,provisional,962
2022,34,2022 W34,2022-08-22,234,provisional,1032
2022,35,2022 W35,2022-08-29,241,provisional,960
2022,36,2022 W36,2022-09-05,248,provisional,970
2022,37,2022 W37,2022-09-12,255,provisional,910
2022,38,2022 W38,2022-09-19,262,provisional,918
2022,39,2022 W39,2022-09-26,269,provisional,1076
2022,40,2022 W40,2022-10-03,276,provisional,1024
2022,41,2022 W41,2022-10-10,283,provisional,998
2022,42,2022 W42,2022-10-17,290,provisional,981
2022,43,2022 W43,2022-10-24,297,provisional,990
2022,44,2022 W44,2022-10-31,304,provisional,968
2022,45,2022 W45,2022-11-07,311,provisional,1017
2022,46,2022 W46,2022-11-14,318,provisional,977
2022,47,2022 W47,2022-11-21,325,provisional,1039
2022,48,2022 W48,2022-11-28,332,provisional,1032
2022,49,2022 W49,2022-12-05,339,provisional,1076
2022,50,2022 W50,2022-12-12,346,provisional,1122
2022,51,2022 W51,2022-12-19,353,provisional,1219
2022,52,2022 W52,2022-12-26,360,provisional,1219
